<svg id="circle-1" xmlns="http://www.w3.org/2000/svg" width="238" height="234" viewBox="0 0 238 234">
  <circle id="Oval" cx="85.5" cy="85.5" r="85.5" transform="translate(67 63)" fill="#535353"/>
  <circle id="Oval-2" data-name="Oval" cx="21.5" cy="21.5" r="21.5"/>
</svg>
