<svg xmlns="http://www.w3.org/2000/svg" width="28" height="20" viewBox="0 0 28 20">
  <g id="cc-visa" transform="translate(0 0)">
    <path id="Shape" d="M25,20H3a3,3,0,0,1-3-3V3A3,3,0,0,1,3,0H25a3,3,0,0,1,3,3V17A3,3,0,0,1,25,20ZM3,2A.978.978,0,0,0,2,3V17a.978.978,0,0,0,1,1H25a.978.978,0,0,0,1-1V3a.978.978,0,0,0-1-1ZM15.719,13.625a4.025,4.025,0,0,1-1.968-.407l.312-1.437a3.979,3.979,0,0,0,1.75.375c1.161,0,1.22-.521,1.22-.625,0-.468-.448-.689-.968-.944-.711-.35-1.6-.786-1.6-2.055,0-1.31,1.153-2.156,2.938-2.156a5.458,5.458,0,0,1,1.719.344L18.813,8.25a2.635,2.635,0,0,0-1.25-.469c-1.088,0-1.25.45-1.25.718,0,.312.418.523.9.766.74.372,1.66.836,1.66,1.89a2.224,2.224,0,0,1-1.086,1.782A3.848,3.848,0,0,1,15.719,13.625Zm4.907-.218H18.813l3-6.907H23.75l1.406,6.905H23.5l-.187-.969H21l-.374.969ZM22.5,8.5l-.968,2.594h1.5Zm-9.875,4.907H10.781L11.875,6.5h1.844l-1.093,6.906Zm-4.281,0h-2L4.875,7.813h.006A6.409,6.409,0,0,1,7.375,10.75c.039.259.124.683.125.688L9.187,6.5h1.969L8.344,13.406ZM7.275,10.326c-.84-2.666-4.4-3.783-4.431-3.794H5.657a1.136,1.136,0,0,1,1,.688l.621,3.106Z" fill="#9b9b9b"/>
  </g>
</svg>
